[
  [
    "Shivam Sharma",
    14.67
  ],
  [
    "KC Cariappa",
    14
  ],
  [
    "Azhar Mahmood",
    12.9
  ],
  [
    "BB Sran",
    12.9
  ],
  [
    "SN Thakur",
    12.6
  ],
  [
    "AB Dinda",
    12.18
  ],
  [
    "JJ Bumrah",
    11.76
  ],
  [
    "PP Ojha",
    11.5
  ],
  [
    "I Sharma",
    11.33
  ],
  [
    "Karanveer Singh",
    11.31
  ]
]